{"photos":{"page":1,"pages":1534,"perpage":100,"total":153305,"photo":[{"id":"52015069220","owner":"61981004@N04","secret":"cac8553fde","server":"65535","farm":66,"title":"by CDM (LITE Version)","ispublic":1,"isfriend":0,"isfamily":0},{"id":"52013523332","owner":"190622906@N05","secret":"38d6db4325","server":"65535","farm":66,"title":"Autostyle Smart Roadster Lowering Springs 40mm full set","ispublic":1,"isfriend":0,"isfamily":0},{"id":"52014582558","owner":"7470295@N02","secret":"f6a0c3b17c","server":"65535","farm":66,"title":"Burnaby, BC","ispublic":1,"isfriend":0,"isfamily":0},{"id":"52015006865","owner":"12846252@N07","secret":"974dfc6946","server":"65535","farm":66,"title":"Additional Toledo District photos - 5","ispublic":1,"isfriend":0,"isfamily":0},{"id":"52013462087","owner":"12846252@N07","secret":"d6072320e3","server":"65535","farm":66,"title":"Additional Toledo District photos - 4","ispublic":1,"isfriend":0,"isfamily":0},{"id":"52013515102","owner":"64842157@N06","secret":"94d1dcb16b","server":"65535","farm":66,"title":"... in the centre ...","ispublic":1,"isfriend":0,"isfamily":0},{"id":"52014792114","owner":"148948465@N03","secret":"2997aea714","server":"65535","farm":66,"title":"K\u00fcbelw\u00e4gelchen im Moos","ispublic":1,"isfriend":0,"isfamily":0},{"id":"52014588478","owner":"190622906@N05","secret":"23e28a8209","server":"65535","farm":66,"title":"Genuine Smartware 2002 Cooling Bag never used with tags","ispublic":1,"isfriend":0,"isfamily":0},{"id":"52014577193","owner":"130542797@N07","secret":"cd82ccc94c","server":"65535","farm":66,"title":"Ford Capri Cabaret 1.6 A515WWP","ispublic":1,"isfriend":0,"isfamily":0},{"id":"52014776879","owner":"130542797@N07","secret":"0a5d255787","server":"65535","farm":66,"title":"Ford Capri Cabaret 1.6 A515WWP","ispublic":1,"isfriend":0,"isfamily":0},{"id":"52014529086","owner":"130542797@N07","secret":"172965bd9d","server":"65535","farm":66,"title":"Ford Capri Cabaret 1.6 A515WWP","ispublic":1,"isfriend":0,"isfamily":0},{"id":"52013486577","owner":"130542797@N07","secret":"97cb50961e","server":"65535","farm":66,"title":"Edsel Pacer 711UYW","ispublic":1,"isfriend":0,"isfamily":0},{"id":"52015031610","owner":"130542797@N07","secret":"800eb5b878","server":"65535","farm":66,"title":"Edsel Pacer 711UYW","ispublic":1,"isfriend":0,"isfamily":0},{"id":"52014516446","owner":"130542797@N07","secret":"e9676f98c0","server":"65535","farm":66,"title":"Edsel Pacer 711UYW","ispublic":1,"isfriend":0,"isfamily":0},{"id":"52014764304","owner":"130542797@N07","secret":"470738b90a","server":"65535","farm":66,"title":"Triumph Spitfire 1500 SBL34S","ispublic":1,"isfriend":0,"isfamily":0},{"id":"52013486167","owner":"130542797@N07","secret":"f414c9a02e","server":"65535","farm":66,"title":"Triumph Spitfire 1500 SBL34S","ispublic":1,"isfriend":0,"isfamily":0},{"id":"52015022730","owner":"190622906@N05","secret":"af1c740629","server":"65535","farm":66,"title":"Genuine Smartware Plush cuddly toy car Smart Roadster Yellow","ispublic":1,"isfriend":0,"isfamily":0},{"id":"52013462912","owner":"90807129@N00","secret":"b4a3628a1a","server":"65535","farm":66,"title":"LAFD Frees Driver Trapped in I-5 Collision","ispublic":1,"isfriend":0,"isfamily":0},{"id":"52014741114","owner":"90807129@N00","secret":"72b44884a6","server":"65535","farm":66,"title":"LAFD Frees Driver Trapped in I-5 Collision","ispublic":1,"isfriend":0,"isfamily":0},{"id":"52015007670","owner":"90807129@N00","secret":"b691a1a442","server":"65535","farm":66,"title":"LAFD Frees Driver Trapped in I-5 Collision","ispublic":1,"isfriend":0,"isfamily":0},{"id":"52014493141","owner":"90807129@N00","secret":"e45aaac31c","server":"65535","farm":66,"title":"LAFD Frees Driver Trapped in I-5 Collision","ispublic":1,"isfriend":0,"isfamily":0},{"id":"52014741034","owner":"90807129@N00","secret":"6bab1ccf5b","server":"65535","farm":66,"title":"LAFD Frees Driver Trapped in I-5 Collision","ispublic":1,"isfriend":0,"isfamily":0},{"id":"52013462827","owner":"90807129@N00","secret":"e153e0a927","server":"65535","farm":66,"title":"LAFD Frees Driver Trapped in I-5 Collision","ispublic":1,"isfriend":0,"isfamily":0},{"id":"52014741039","owner":"90807129@N00","secret":"5736d6e0ee","server":"65535","farm":66,"title":"LAFD Frees Driver Trapped in I-5 Collision","ispublic":1,"isfriend":0,"isfamily":0},{"id":"52014541148","owner":"90807129@N00","secret":"fcda4de179","server":"65535","farm":66,"title":"LAFD Frees Driver Trapped in I-5 Collision","ispublic":1,"isfriend":0,"isfamily":0},{"id":"52014743059","owner":"195451383@N04","secret":"9a7dac017e","server":"65535","farm":66,"title":"Car Buyers Inglewood CA","ispublic":1,"isfriend":0,"isfamily":0},{"id":"52013464752","owner":"195451383@N04","secret":"ef5d7419b7","server":"65535","farm":66,"title":"Car Buyers Inglewood","ispublic":1,"isfriend":0,"isfamily":0},{"id":"52013464702","owner":"195451383@N04","secret":"dd802a6944","server":"65535","farm":66,"title":"Inglewood Ca Sell Your Car","ispublic":1,"isfriend":0,"isfamily":0},{"id":"52013464587","owner":"195451383@N04","secret":"90739a6962","server":"65535","farm":66,"title":"Sell Your Car California CA","ispublic":1,"isfriend":0,"isfamily":0},{"id":"52014538863","owner":"29428353@N02","secret":"b723fc2da4","server":"65535","farm":66,"title":"Sunset on the way","ispublic":1,"isfriend":0,"isfamily":0},{"id":"52013457752","owner":"182077002@N04","secret":"d94bf5d705","server":"65535","farm":66,"title":"BC Car","ispublic":1,"isfriend":0,"isfamily":0},{"id":"52015000345","owner":"64842157@N06","secret":"04c8eb5a8d","server":"65535","farm":66,"title":"... Rogers Place and Ice-District towers ...","ispublic":1,"isfriend":0,"isfamily":0},{"id":"52014522138","owner":"17600001@N08","secret":"b8325a6fe0","server":"65535","farm":66,"title":"1979 AMC Spirit DL","ispublic":1,"isfriend":0,"isfamily":0},{"id":"52014474666","owner":"17600001@N08","secret":"428fee34ae","server":"65535","farm":66,"title":"1988 Pontiac Fiero GT","ispublic":1,"isfriend":0,"isfamily":0},{"id":"52014474621","owner":"17600001@N08","secret":"83900c17bd","server":"65535","farm":66,"title":"1978 Ford Mustang II","ispublic":1,"isfriend":0,"isfamily":0},{"id":"52013443947","owner":"17600001@N08","secret":"28c15359ec","server":"65535","farm":66,"title":"1953 MV Augusta Pullman 125","ispublic":1,"isfriend":0,"isfamily":0},{"id":"52014988810","owner":"17600001@N08","secret":"bba62ed798","server":"65535","farm":66,"title":"1975 Norton Commando","ispublic":1,"isfriend":0,"isfamily":0},{"id":"52014521968","owner":"36653703@N06","secret":"c88b9219f5","server":"65535","farm":66,"title":"503 - 30 - FRA - DM-757-QN - Simon Michael - GBR","ispublic":1,"isfriend":0,"isfamily":0},{"id":"52014988445","owner":"36653703@N06","secret":"066854211e","server":"65535","farm":66,"title":"063 - 22 - FRA - CT-116-WT - Cyrille Traglia - FRA","ispublic":1,"isfriend":0,"isfamily":0},{"id":"52014521293","owner":"36653703@N06","secret":"1b7a09d895","server":"65535","farm":66,"title":"035 - 10 - FRA - DQ-532-JE - Christian Windischberger - AUT","ispublic":1,"isfriend":0,"isfamily":0},{"id":"52013442807","owner":"36653703@N06","secret":"f24f8c1bcf","server":"65535","farm":66,"title":"033 - 13 - FRA - DQ-508-JE  -Luca Waldherr - AUT","ispublic":1,"isfriend":0,"isfamily":0},{"id":"52014987380","owner":"36653703@N06","secret":"4842ab4de6","server":"65535","farm":66,"title":"017 - 67 - CZE - 01R 0313 - Alessandro Poggio - ITA","ispublic":1,"isfriend":0,"isfamily":0},{"id":"52014519988","owner":"36653703@N06","secret":"05f55392e8","server":"65535","farm":66,"title":"008 - 55 - FRA - DH-222-MQ -  Micka\u00ebl Prevalet  - FRA","ispublic":1,"isfriend":0,"isfamily":0},{"id":"52014986460","owner":"36653703@N06","secret":"f6d779e875","server":"65535","farm":66,"title":"005 - 37 - FRA - CW-589KC - Jean Benoit Houssin - FRA","ispublic":1,"isfriend":0,"isfamily":0},{"id":"52014984860","owner":"45549579@N05","secret":"1811c8e1a0","server":"65535","farm":66,"title":"Viva Las Vegas Rockabilly Weekend 2022","ispublic":1,"isfriend":0,"isfamily":0},{"id":"52014717094","owner":"190622906@N05","secret":"d1eed25da2","server":"65535","farm":66,"title":"Meguiars Perfect Clarity Glass Polishing Compound 235ml","ispublic":1,"isfriend":0,"isfamily":0},{"id":"52014466871","owner":"50313109@N00","secret":"8ec9a503af","server":"65535","farm":66,"title":"TTC 4509 Flelexity Outlook LRV Westbound On Dundas St East On Route 505 At Church St","ispublic":1,"isfriend":0,"isfamily":0},{"id":"52014711499","owner":"192838017@N08","secret":"82cd756263","server":"65535","farm":66,"title":"I will professional uv gloss business card and visiting card design","ispublic":1,"isfriend":0,"isfamily":0},{"id":"52014464001","owner":"50313109@N00","secret":"10e2f1798d","server":"65535","farm":66,"title":"TTC 4523 Flelexity Outlook LRV Westbound On Dundas St East On Route 505 At Church St","ispublic":1,"isfriend":0,"isfamily":0},{"id":"52014976415","owner":"64842157@N06","secret":"ce93d020f1","server":"65535","farm":66,"title":"... towering car ...","ispublic":1,"isfriend":0,"isfamily":0},{"id":"52013425982","owner":"17600001@N08","secret":"1f18d3066e","server":"65535","farm":66,"title":"1965 Ford Mustang Convertible","ispublic":1,"isfriend":0,"isfamily":0},{"id":"52014456336","owner":"17600001@N08","secret":"a5eb215d2a","server":"65535","farm":66,"title":"1933 Ford Victoria","ispublic":1,"isfriend":0,"isfamily":0},{"id":"52013425867","owner":"17600001@N08","secret":"1801fc87ff","server":"65535","farm":66,"title":"1960 Chevy Impala","ispublic":1,"isfriend":0,"isfamily":0},{"id":"52014456186","owner":"17600001@N08","secret":"dc77a0262c","server":"65535","farm":66,"title":"1995 Ford Mustang GT","ispublic":1,"isfriend":0,"isfamily":0},{"id":"52014495173","owner":"190622906@N05","secret":"696aca3fea","server":"65535","farm":66,"title":"Meguiars Ultimate All Wheel Cleaner 710ml","ispublic":1,"isfriend":0,"isfamily":0},{"id":"52014691269","owner":"77318980@N02","secret":"91bb4cb655","server":"65535","farm":66,"title":"Station from the Car Park","ispublic":1,"isfriend":0,"isfamily":0},{"id":"52014684484","owner":"45549579@N05","secret":"df22312fde","server":"65535","farm":66,"title":"Viva Las Vegas Rockabilly Weekend 2022","ispublic":1,"isfriend":0,"isfamily":0},{"id":"52014441931","owner":"70971202@N08","secret":"eebfb999ce","server":"65535","farm":66,"title":"Exchange","ispublic":1,"isfriend":0,"isfamily":0},{"id":"52013404157","owner":"190622906@N05","secret":"23dc0de561","server":"65535","farm":66,"title":"Meguiars Soft Wash Gel 473ml","ispublic":1,"isfriend":0,"isfamily":0},{"id":"52014391021","owner":"52248501@N00","secret":"c1ce77b55c","server":"65535","farm":66,"title":"Eve | Motor Expo","ispublic":1,"isfriend":0,"isfamily":0},{"id":"52014391001","owner":"52248501@N00","secret":"0e33da2576","server":"65535","farm":66,"title":"AomZaa | Motor Expo","ispublic":1,"isfriend":0,"isfamily":0},{"id":"52014390931","owner":"52248501@N00","secret":"34a040e227","server":"65535","farm":66,"title":"May | Motor Expo","ispublic":1,"isfriend":0,"isfamily":0},{"id":"52014906460","owner":"52248501@N00","secret":"8d6557c882","server":"65535","farm":66,"title":"Kluay | Motor Expo","ispublic":1,"isfriend":0,"isfamily":0},{"id":"52014906370","owner":"52248501@N00","secret":"8f72f9374e","server":"65535","farm":66,"title":"Mint | Motor Expo","ispublic":1,"isfriend":0,"isfamily":0},{"id":"52014906315","owner":"52248501@N00","secret":"97dbc21b4f","server":"65535","farm":66,"title":"Mint & Jah Ja | Motor Expo","ispublic":1,"isfriend":0,"isfamily":0},{"id":"52014906265","owner":"52248501@N00","secret":"137e41a3f7","server":"65535","farm":66,"title":"PorPang | Motor Expo","ispublic":1,"isfriend":0,"isfamily":0},{"id":"52014439343","owner":"52248501@N00","secret":"04d57a48a3","server":"65535","farm":66,"title":"Air | Motor Expo","ispublic":1,"isfriend":0,"isfamily":0},{"id":"52013361022","owner":"52248501@N00","secret":"49fa43ee82","server":"65535","farm":66,"title":"Jaguar | Motor Expo","ispublic":1,"isfriend":0,"isfamily":0},{"id":"52014638739","owner":"52248501@N00","secret":"c4f0e5948c","server":"65535","farm":66,"title":"Unseen | Motor Expo","ispublic":1,"isfriend":0,"isfamily":0},{"id":"52014439008","owner":"52248501@N00","secret":"622dd52516","server":"65535","farm":66,"title":"Kluay | Motor Expo","ispublic":1,"isfriend":0,"isfamily":0},{"id":"52014638494","owner":"52248501@N00","secret":"b2102cb6c2","server":"65535","farm":66,"title":"I-tim | Motor Expo","ispublic":1,"isfriend":0,"isfamily":0},{"id":"52014390366","owner":"52248501@N00","secret":"a031da17a7","server":"65535","farm":66,"title":"Mint | Motor Expo","ispublic":1,"isfriend":0,"isfamily":0},{"id":"52014438938","owner":"52248501@N00","secret":"b3c169e744","server":"65535","farm":66,"title":"Praew | Motor Expo","ispublic":1,"isfriend":0,"isfamily":0},{"id":"52014638399","owner":"52248501@N00","secret":"2a43ccc2ec","server":"65535","farm":66,"title":"Jigkee | Motor Expo","ispublic":1,"isfriend":0,"isfamily":0},{"id":"52013360587","owner":"52248501@N00","secret":"bc48c35da0","server":"65535","farm":66,"title":"Look Choup | Motor Expo","ispublic":1,"isfriend":0,"isfamily":0},{"id":"52014438743","owner":"52248501@N00","secret":"7e2f4497d2","server":"65535","farm":66,"title":"Hunnie | Motor Expo","ispublic":1,"isfriend":0,"isfamily":0},{"id":"52014638209","owner":"52248501@N00","secret":"8843640263","server":"65535","farm":66,"title":"Motor Expo","ispublic":1,"isfriend":0,"isfamily":0},{"id":"52014638129","owner":"52248501@N00","secret":"18f761d64a","server":"65535","farm":66,"title":"Amily | Motor Expo","ispublic":1,"isfriend":0,"isfamily":0},{"id":"52014389916","owner":"52248501@N00","secret":"36e401cb77","server":"65535","farm":66,"title":"Annie Osalu | Motor Expo","ispublic":1,"isfriend":0,"isfamily":0},{"id":"52014905345","owner":"52248501@N00","secret":"18989fea9e","server":"65535","farm":66,"title":"Janet | Motor Expo","ispublic":1,"isfriend":0,"isfamily":0},{"id":"52014438328","owner":"52248501@N00","secret":"27d056f45d","server":"65535","farm":66,"title":"Melania | Motor Expo","ispublic":1,"isfriend":0,"isfamily":0},{"id":"52013359787","owner":"52248501@N00","secret":"632a7d2391","server":"65535","farm":66,"title":"NamHorm | Motor Expo","ispublic":1,"isfriend":0,"isfamily":0},{"id":"52013359717","owner":"52248501@N00","secret":"d1cc7db62e","server":"65535","farm":66,"title":"Lhiily | Motor Expo","ispublic":1,"isfriend":0,"isfamily":0},{"id":"52014438173","owner":"52248501@N00","secret":"10749649ff","server":"65535","farm":66,"title":"Kik | Motor Expo","ispublic":1,"isfriend":0,"isfamily":0},{"id":"52014904900","owner":"52248501@N00","secret":"6632818065","server":"65535","farm":66,"title":"Oreye | Motor Expo","ispublic":1,"isfriend":0,"isfamily":0},{"id":"52014846670","owner":"7706348@N04","secret":"95d18e979c","server":"65535","farm":66,"title":"Bin02-Box02O-Scan555","ispublic":1,"isfriend":0,"isfamily":0},{"id":"52014673599","owner":"190622906@N05","secret":"91834a6fea","server":"65535","farm":66,"title":"Meguiar's Soft Buff Foam Finishing Disc 5'' for Dual Action Polisher","ispublic":1,"isfriend":0,"isfamily":0},{"id":"52014472913","owner":"55167823@N07","secret":"6fe6a63841","server":"65535","farm":66,"title":"Alco Race Car","ispublic":1,"isfriend":0,"isfamily":0},{"id":"52014472243","owner":"55167823@N07","secret":"8761ae4ecf","server":"65535","farm":66,"title":"Dashboard of Alco Car","ispublic":1,"isfriend":0,"isfamily":0},{"id":"52013390242","owner":"190622906@N05","secret":"028cd59123","server":"65535","farm":66,"title":"1x H3 Car Bulb 12V  for Fog light Smart Roadster","ispublic":1,"isfriend":0,"isfamily":0},{"id":"52014933015","owner":"17600001@N08","secret":"636434cdfd","server":"65535","farm":66,"title":"2022 BMW iX","ispublic":1,"isfriend":0,"isfamily":0},{"id":"52014466828","owner":"61522587@N02","secret":"ac0f77c6eb","server":"65535","farm":66,"title":"Trusty Old Dodge!","ispublic":1,"isfriend":0,"isfamily":0},{"id":"52014376826","owner":"193316968@N06","secret":"57c3d42541","server":"65535","farm":66,"title":"Lynchgate Car Park facade on Academic Loop Road","ispublic":1,"isfriend":0,"isfamily":0},{"id":"52013346412","owner":"193316968@N06","secret":"017bc93236","server":"65535","farm":66,"title":"Lynchgate Car Park facade","ispublic":1,"isfriend":0,"isfamily":0},{"id":"52014624259","owner":"193316968@N06","secret":"2c924b7191","server":"65535","farm":66,"title":"Lynchgate Car Park facade","ispublic":1,"isfriend":0,"isfamily":0},{"id":"52013381807","owner":"190622906@N05","secret":"ac4258cba1","server":"65535","farm":66,"title":"OEM Smart ForTwo 451 facelift model as of 9-2010 mounting Frame Car Radio 2X Din","ispublic":1,"isfriend":0,"isfamily":0},{"id":"52014409046","owner":"70291297@N00","secret":"25f232fea0","server":"65535","farm":66,"title":"Mercy","ispublic":1,"isfriend":0,"isfamily":0},{"id":"52014453393","owner":"194048042@N06","secret":"a2059fa53a","server":"65535","farm":66,"title":"Local Motive","ispublic":1,"isfriend":0,"isfamily":0},{"id":"52014400681","owner":"17600001@N08","secret":"6dd5bcfaa5","server":"65535","farm":66,"title":"2010 Dodge Charger Squad","ispublic":1,"isfriend":0,"isfamily":0},{"id":"52014915590","owner":"17600001@N08","secret":"3a92ec249f","server":"65535","farm":66,"title":"1975 Chevy Vega","ispublic":1,"isfriend":0,"isfamily":0}]},"stat":"ok"}

